<?xml version="1.0" encoding="UTF-8" standalone="no"?>
<svg width="43px" height="33px" viewBox="0 0 43 33" version="1.1" xmlns="http://www.w3.org/2000/svg" xmlns:xlink="http://www.w3.org/1999/xlink" xmlns:sketch="http://www.bohemiancoding.com/sketch/ns">
    <!-- Generator: sketchtool 3.5.2 (25235) - http://www.bohemiancoding.com/sketch -->
    <title>M&amp;C Icon</title>
    <desc>Created with sketchtool.</desc>
    <defs></defs>
    <g id="Page-1" stroke="none" stroke-width="1" fill="none" fill-rule="evenodd" sketch:type="MSPage">
        <g id="Header-Desktop" sketch:type="MSArtboardGroup" transform="translate(-636.000000, -1071.000000)" stroke="#3DCD58" stroke-width="2">
            <g id="M&amp;C-Icon" sketch:type="MSLayerGroup" transform="translate(637.000000, 1072.000000)">
                <path d="M27.786,1.7088 C27.236,1.0478 26.407,0.6278 25.48,0.6278 L15.679,0.6278 C14.022,0.6278 12.679,1.9708 12.679,3.6278 L12.679,6.2498 L28.48,6.2498" id="Stroke-1" stroke-linecap="round" sketch:type="MSShapeGroup"></path>
                <path d="M11.6999,19.1759 L9.6999,19.1759 C9.1479,19.1759 8.6999,18.7279 8.6999,18.1759 L8.6999,14.1759 C8.6999,13.6239 9.1479,13.1759 9.6999,13.1759 L11.6999,13.1759 C12.2519,13.1759 12.6999,13.6239 12.6999,14.1759 L12.6999,18.1759 C12.6999,18.7279 12.2519,19.1759 11.6999,19.1759 L11.6999,19.1759 Z" id="Stroke-3" sketch:type="MSShapeGroup"></path>
                <path d="M31.7312,19.1759 L29.7312,19.1759 C29.1792,19.1759 28.7312,18.7279 28.7312,18.1759 L28.7312,14.1759 C28.7312,13.6239 29.1792,13.1759 29.7312,13.1759 L31.7312,13.1759 C32.2832,13.1759 32.7312,13.6239 32.7312,14.1759 L32.7312,18.1759 C32.7312,18.7279 32.2832,19.1759 31.7312,19.1759 L31.7312,19.1759 Z" id="Stroke-5" sketch:type="MSShapeGroup"></path>
                <path d="M32.7313,16.25 L38.7503,16.25 L38.7503,27.25 C38.7503,28.907 37.4073,30.25 35.7503,30.25 L5.7503,30.25 C4.0933,30.25 2.7503,28.907 2.7503,27.25 L2.7503,16.25 L8.6993,16.25" id="Stroke-7" sketch:type="MSShapeGroup"></path>
                <path d="M12.6795,16 L28.7315,16" id="Stroke-9" sketch:type="MSShapeGroup"></path>
                <path d="M32.7309,16.25 L40.7499,16.25 L40.7499,9.25 C40.7499,7.593 39.4069,6.25 37.7499,6.25 L3.7499,6.25 C2.0929,6.25 0.7499,7.593 0.7499,9.25 L0.7499,16.25 L8.7009,16.25" id="Stroke-11" sketch:type="MSShapeGroup"></path>
                <path d="M12.6787,16 L28.7307,16" id="Stroke-13" sketch:type="MSShapeGroup"></path>
            </g>
        </g>
    </g>
</svg>