<?xml version="1.0" encoding="UTF-8" standalone="no"?>
<svg width="40px" height="40px" viewBox="0 0 40 40" version="1.1" xmlns="http://www.w3.org/2000/svg" xmlns:xlink="http://www.w3.org/1999/xlink">
    <!-- Generator: sketchtool 3.6 (26304) - http://www.bohemiancoding.com/sketch -->
    <title>Support</title>
    <desc>Created with sketchtool.</desc>
    <defs></defs>
    <g id="Page-1" stroke="none" stroke-width="1" fill="none" fill-rule="evenodd" stroke-linecap="round" stroke-linejoin="round">
        <g id="Header-Desktop" transform="translate(-1201.000000, -1064.000000)" stroke="#3DCD58" stroke-width="2">
            <g id="Support" transform="translate(1202.000000, 1065.000000)">
                <path d="M28.5955718,25.3486649 C27.6424721,24.6991734 27.1852474,22.6429986 27.1852474,18.7666034 C27.1852474,14.8897971 28.9343785,13.1304152 28.9343785,13.1304152 C25.4266592,3.12619146 16.2102099,3.71813304 16.2102099,3.71813304 C3.58554515,3.71813304 3.31746016,18.1097127 3.31746016,18.1097127 C3.31746016,18.1097127 3.13901095,18.8960906 1.94414137,18.8960906 C-0.0586837337,18.8960906 0.0412313761,16.0276404 0.0412313761,16.0276404 C-0.241244675,14.3928128 1.02023498,13.6257552 1.02023498,13.6257552 C1.14975457,11.8803497 4.52713198,0 16.9429207,0 C29.3582982,0 32.8898656,12.7871713 32.8898656,12.7871713 C35.9555737,13.3166302 36.8095806,15.9894108 36.8095806,15.9894108 C38.4892235,20.2764655 36.6985638,23.210687 36.6985638,23.210687 C34.5320917,27.5779004 31.6176954,26.3915509 31.6176954,26.3915509 C30.7266829,31.5163673 27.6247916,33.6851755 27.6247916,33.6851755 C24.5763528,36.6695476 19.6139024,36.438937 19.6139024,36.438937 C19.0715648,37.4600362 17.6657633,37.5332068 17.6657633,37.5332068 C13.9068171,37.5484164 13.9306652,35.4178378 13.9306652,35.4178378 C14.6843458,33.3542637 17.9597522,34.4004382 17.9597522,34.4004382" id="Page-1"></path>
            </g>
        </g>
    </g>
</svg>